<svg width="289" height="289" viewBox="0 0 289 289" version="1.1" xmlns="http://www.w3.org/2000/svg" xmlns:xlink="http://www.w3.org/1999/xlink">
<title>Combined Shape Copy 9</title>
<desc>Created using Figma</desc>
<g id="Canvas" transform="translate(-8628 -108)">
<g id="Combined Shape Copy 9" filter="url(#filter0_d)">
<use xlink:href="#path0_fill" transform="translate(8671 115)" fill="#FFFFFF"/>
</g>
</g>
<defs>
<filter id="filter0_d" filterUnits="userSpaceOnUse" x="8628" y="108" width="289" height="289" color-interpolation-filters="sRGB">
<feFlood flood-opacity="0" result="BackgroundImageFix"/>
<feColorMatrix in="SourceAlpha" type="matrix" values="0 0 0 0 0 0 0 0 0 0 0 0 0 0 0 0 0 0 255 0"/>
<feOffset dx="-5" dy="31"/>
<feGaussianBlur stdDeviation="19"/>
<feColorMatrix type="matrix" values="0 0 0 0 0.9409 0 0 0 0 0.946235 0 0 0 0 0.97 0 0 0 0.568416 0"/>
<feBlend mode="normal" in2="BackgroundImageFix" result="effect1_dropShadow"/>
<feBlend mode="normal" in="SourceGraphic" in2="effect1_dropShadow" result="shape"/>
</filter>
<path id="path0_fill" fill-rule="evenodd" d="M 106.5 213C 165.318 213 213 165.318 213 106.5C 213 47.6817 165.318 0 106.5 0C 47.6817 0 0 47.6817 0 106.5C 0 165.318 47.6817 213 106.5 213Z"/>
</defs>
</svg>
