<svg width="283" height="283" viewBox="0 0 283 283" version="1.1" xmlns="http://www.w3.org/2000/svg" xmlns:xlink="http://www.w3.org/1999/xlink">
<title>Combined Shape Copy 6</title>
<desc>Created using Figma</desc>
<g id="Canvas" transform="translate(-7093 623)">
<g id="Combined Shape Copy 6" filter="url(#filter0_d)">
<use xlink:href="#path0_fill" transform="translate(7136 -616)" fill="#FFFFFF"/>
</g>
</g>
<defs>
<filter id="filter0_d" filterUnits="userSpaceOnUse" x="7093" y="-623" width="283" height="283" color-interpolation-filters="sRGB">
<feFlood flood-opacity="0" result="BackgroundImageFix"/>
<feColorMatrix in="SourceAlpha" type="matrix" values="0 0 0 0 0 0 0 0 0 0 0 0 0 0 0 0 0 0 255 0"/>
<feOffset dx="-5" dy="31"/>
<feGaussianBlur stdDeviation="19"/>
<feColorMatrix type="matrix" values="0 0 0 0 0.9409 0 0 0 0 0.946235 0 0 0 0 0.97 0 0 0 0.568416 0"/>
<feBlend mode="normal" in2="BackgroundImageFix" result="effect1_dropShadow"/>
<feBlend mode="normal" in="SourceGraphic" in2="effect1_dropShadow" result="shape"/>
</filter>
<path id="path0_fill" fill-rule="evenodd" d="M 207 103.5C 207 160.661 160.662 207 103.5 207C 46.3384 207 0 160.661 0 103.5C 0 46.3385 46.3384 0 103.5 0C 160.662 0 207 46.3385 207 103.5ZM 145 104C 145 126.644 126.644 145 104 145C 81.3564 145 63 126.644 63 104C 63 81.3563 81.3564 63 104 63C 126.644 63 145 81.3563 145 104Z"/>
</defs>
</svg>
