<svg width="4" height="5" viewBox="0 0 4 7" version="1.1" xmlns="http://www.w3.org/2000/svg" xmlns:xlink="http://www.w3.org/1999/xlink">
<path fill="#D3DCE3" d="M 0 2C 0 0.89543 0.895431 0 2 0L 2 0C 3.10457 0 4 0.895431 4 2L 4 3C 4 4.10457 3.10457 5 2 5L 2 5C 0.895431 5 0 4.10457 0 3L 0 2Z"/>
</svg>
